<svg width="24" height="24" viewBox="0 0 24 24" xmlns="http://www.w3.org/2000/svg">
<path d="M7.5 11.2031L13.875 4.82812C14.0938 4.60937 14.3594 4.5 14.6719 4.5C14.9844 4.5 15.25 4.60937 15.4688 4.82812L16.5 5.90625C16.7188 6.125 16.8281 6.39062 16.8281 6.70312C16.8281 7.01563 16.7188 7.28125 16.5 7.5L12 12L16.5 16.5C16.6562 16.6562 16.75 16.8281 16.7812 17.0156C16.8438 17.2031 16.8438 17.4062 16.7812 17.625C16.75 17.8125 16.6562 17.9688 16.5 18.0938L15.4688 19.1719C15.25 19.3906 14.9844 19.5 14.6719 19.5C14.3594 19.5 14.0938 19.3906 13.875 19.1719L7.5 12.7969C7.28125 12.5781 7.17188 12.3125 7.17188 12C7.17188 11.6875 7.28125 11.4219 7.5 11.2031Z" />
</svg>
