<svg width="30" height="24" viewBox="0 0 30 24" xmlns="http://www.w3.org/2000/svg">
<path d="M29.3438 13.7812L19.7812 23.3438C19.3438 23.7812 18.8125 24 18.1875 24C17.5625 24 17.0312 23.7812 16.5938 23.3438L27.75 12.1875L15.5156 0H17.8125C18.4375 0 18.9688 0.21875 19.4062 0.65625L29.3438 10.5938C29.7812 11.0312 30 11.5625 30 12.1875C30 12.8125 29.7812 13.3438 29.3438 13.7812ZM23.3438 13.7812L13.7812 23.3438C13.3438 23.7812 12.8125 24 12.1875 24C11.5625 24 11.0312 23.7812 10.5938 23.3438L0.65625 13.4062C0.21875 12.9688 0 12.4375 0 11.8125V2.25C0 1.625 0.21875 1.09375 0.65625 0.65625C1.09375 0.21875 1.625 0 2.25 0H11.8125C12.4375 0 12.9688 0.21875 13.4062 0.65625L23.3438 10.5938C23.7812 11.0312 24 11.5625 24 12.1875C24 12.8125 23.7812 13.3438 23.3438 13.7812ZM21.75 12.1875L11.8125 2.25H2.25V11.8125L12.1875 21.75L21.75 12.1875ZM5.15625 5.15625C5.59375 4.71875 6.125 4.5 6.75 4.5C7.375 4.5 7.90625 4.71875 8.34375 5.15625C8.78125 5.59375 9 6.125 9 6.75C9 7.375 8.78125 7.90625 8.34375 8.34375C7.90625 8.78125 7.375 9 6.75 9C6.125 9 5.59375 8.78125 5.15625 8.34375C4.71875 7.90625 4.5 7.375 4.5 6.75C4.5 6.125 4.71875 5.59375 5.15625 5.15625Z" />
</svg>
