<svg width="24" height="24" viewBox="0 0 24 24" xmlns="http://www.w3.org/2000/svg">
<g clip-path="url(#clip0)">
<path d="M22 0H5.5C4.96957 0 4.46086 0.210714 4.08579 0.585786C3.71071 0.960859 3.5 1.46957 3.5 2V18.5C3.5 19.0304 3.71071 19.5391 4.08579 19.9142C4.46086 20.2893 4.96957 20.5 5.5 20.5H22C22.5304 20.5 23.0391 20.2893 23.4142 19.9142C23.7893 19.5391 24 19.0304 24 18.5V2C24 1.46957 23.7893 0.960859 23.4142 0.585786C23.0391 0.210714 22.5304 0 22 0V0ZM18.152 10.44L14.111 14.656C14.0643 14.7045 14.0084 14.7432 13.9464 14.7696C13.8845 14.7959 13.8178 14.8095 13.7505 14.8095C13.6832 14.8095 13.6165 14.7959 13.5546 14.7696C13.4926 14.7432 13.4367 14.7045 13.39 14.656L9.341 10.432C8.91374 10.0028 8.6322 9.45021 8.53619 8.85227C8.44018 8.25434 8.53457 7.64136 8.806 7.1C9.01187 6.69039 9.31192 6.33543 9.68153 6.06423C10.0511 5.79303 10.4798 5.61331 10.9323 5.53983C11.3848 5.46635 11.8483 5.50119 12.2847 5.6415C12.7211 5.78181 13.1181 6.02359 13.443 6.347L13.75 6.655L14.058 6.349C14.3822 6.02447 14.7788 5.78164 15.2153 5.64054C15.6517 5.49944 16.1155 5.46411 16.5683 5.53746C17.0211 5.61081 17.45 5.79074 17.8196 6.06241C18.1891 6.33409 18.4889 6.68973 18.694 7.1C18.9658 7.64312 19.0597 8.25804 18.9625 8.85754C18.8652 9.45704 18.5816 10.0107 18.152 10.44Z" />
<path opacity="0.6" d="M19.5 22H2.5C2.36739 22 2.24021 21.9473 2.14645 21.8536C2.05268 21.7598 2 21.6326 2 21.5V4.5C2 4.23478 1.89464 3.98043 1.70711 3.79289C1.51957 3.60536 1.26522 3.5 1 3.5C0.734784 3.5 0.48043 3.60536 0.292893 3.79289C0.105357 3.98043 0 4.23478 0 4.5L0 22C0 22.5304 0.210714 23.0391 0.585786 23.4142C0.960859 23.7893 1.46957 24 2 24H19.5C19.7652 24 20.0196 23.8946 20.2071 23.7071C20.3946 23.5196 20.5 23.2652 20.5 23C20.5 22.7348 20.3946 22.4804 20.2071 22.2929C20.0196 22.1054 19.7652 22 19.5 22Z" />
</g>
<defs>
<clipPath id="clip0">
<rect width="24" height="24" fill="white"/>
</clipPath>
</defs>
</svg>
