<svg width="24" height="24" viewBox="0 0 24 24" xmlns="http://www.w3.org/2000/svg">
<path d="M17.4375 11.1562C17.8125 11.375 18 11.7031 18 12.1406C18 12.5781 17.8125 12.9062 17.4375 13.125L9.1875 17.8594C8.90625 17.9844 8.64062 18.0312 8.39062 18C8.14062 17.9375 7.92188 17.8125 7.73438 17.625C7.57812 17.4062 7.5 17.1562 7.5 16.875V7.125C7.5 6.6875 7.6875 6.35938 8.0625 6.14062C8.4375 5.92187 8.8125 5.92187 9.1875 6.14062L17.4375 11.1562ZM20.2031 3.79688C22.4844 6.04688 23.625 8.78125 23.625 12C23.625 15.2188 22.4844 17.9688 20.2031 20.25C17.9531 22.5 15.2188 23.625 12 23.625C8.78125 23.625 6.03125 22.5 3.75 20.25C1.5 17.9688 0.375 15.2188 0.375 12C0.375 8.78125 1.5 6.04688 3.75 3.79688C6.03125 1.51562 8.78125 0.375 12 0.375C15.2188 0.375 17.9531 1.51562 20.2031 3.79688ZM5.34375 5.39062C3.53125 7.20313 2.625 9.40625 2.625 12C2.625 14.5938 3.53125 16.8125 5.34375 18.6562C7.1875 20.4688 9.40625 21.375 12 21.375C14.5938 21.375 16.7969 20.4688 18.6094 18.6562C20.4531 16.8125 21.375 14.5938 21.375 12C21.375 9.40625 20.4531 7.20313 18.6094 5.39062C16.7969 3.54688 14.5938 2.625 12 2.625C9.40625 2.625 7.1875 3.54688 5.34375 5.39062Z" />
</svg>
