<svg width="18" height="16" viewBox="0 0 18 16" fill="none" xmlns="http://www.w3.org/2000/svg">
<path d="M9 4.5C9.97917 4.5 10.8021 4.84375 11.4688 5.53125C12.1562 6.19792 12.5 7.02083 12.5 8C12.5 8.95833 12.1562 9.78125 11.4688 10.4688C10.8021 11.1354 9.97917 11.4688 9 11.4688C8.04167 11.4688 7.21875 11.1354 6.53125 10.4688C5.86458 9.78125 5.53125 8.95833 5.53125 8C5.53125 7.66667 5.57292 7.34375 5.65625 7.03125C5.92708 7.17708 6.20833 7.25 6.5 7.25C6.97917 7.25 7.38542 7.08333 7.71875 6.75C8.07292 6.39583 8.25 5.97917 8.25 5.5C8.25 5.20833 8.17708 4.92708 8.03125 4.65625C8.34375 4.55208 8.66667 4.5 9 4.5ZM17.9062 7.53125C17.9688 7.67708 18 7.83333 18 8C18 8.16667 17.9688 8.32292 17.9062 8.46875C17.0312 10.1354 15.8021 11.4792 14.2188 12.5C12.6354 13.5 10.8958 14 9 14C7.75 14 6.54167 13.7708 5.375 13.3125C4.22917 12.8333 3.20833 12.1875 2.3125 11.375C1.41667 10.5417 0.677083 9.57292 0.09375 8.46875C0.03125 8.32292 0 8.16667 0 8C0 7.83333 0.03125 7.67708 0.09375 7.53125C0.96875 5.86458 2.19792 4.53125 3.78125 3.53125C5.36458 2.51042 7.10417 2 9 2C10.8958 2 12.6354 2.51042 14.2188 3.53125C15.8021 4.53125 17.0312 5.86458 17.9062 7.53125ZM9 12.5C10.5417 12.5 11.9688 12.1042 13.2812 11.3125C14.6146 10.5 15.6667 9.39583 16.4375 8C15.6667 6.60417 14.6146 5.51042 13.2812 4.71875C11.9688 3.90625 10.5417 3.5 9 3.5C7.45833 3.5 6.02083 3.90625 4.6875 4.71875C3.375 5.51042 2.33333 6.60417 1.5625 8C2.0625 8.91667 2.69792 9.71875 3.46875 10.4062C4.23958 11.0729 5.09375 11.5938 6.03125 11.9688C6.98958 12.3229 7.97917 12.5 9 12.5Z" fill="#635B5A"/>
</svg>
